{
    "page": 1,
    "size": 3,
    "pages": 2,
    "total": 4,
    "_links": {
        "self": {
            "href": "http:\/\/localhost\/youwe_teams?page=1&size=3"
        },
        "first": {
            "href": "http:\/\/localhost\/youwe_teams?page=1&size=3"
        },
        "last": {
            "href": "http:\/\/localhost\/youwe_teams?page=2&size=3"
        },
        "next": {
            "href": "http:\/\/localhost\/youwe_teams?page=2&size=3"
        }
    },
    "rows": [
        {
            "identifier": "122ffa9e-3439-414b-be8a-5abd3f05007c",
            "team_name": "Team Sigma",
            "established_date": "2021-12-01T00:00:00+00:00",
            "_links": {
                "self": "http:\/\/localhost\/youwe_team\/122ffa9e-3439-414b-be8a-5abd3f05007c"
            }
        },
        {
            "identifier": "bd2f440e-8fa9-4db9-aa5c-f210ea816900",
            "team_name": "Team Sirius",
            "established_date": "2020-05-05T00:00:00+00:00",
            "_links": {
                "self": "http:\/\/localhost\/youwe_team\/bd2f440e-8fa9-4db9-aa5c-f210ea816900"
            }
        },
        {
            "identifier": "b23b7cb3-570d-4ccb-8490-ea9c7ba81393",
            "team_name": "Team Panda",
            "established_date": "2019-03-17T00:00:00+00:00",
            "_links": {
                "self": "http:\/\/localhost\/youwe_team\/b23b7cb3-570d-4ccb-8490-ea9c7ba81393"
            }
        }
    ]
}
